…
## Задание 2: Надите утечку данных 2

### Другой атакующий установил автоматическую задачу в системном планировщике cron для экспорта содержимого внутренней wiki системы. Эта система генерирует большое количество траффика в нерабочие часы, больше чем остальные хосты. Определите IP этой системы. Известно, что ее IP адрес отличается от нарушителя из предыдущей задачи.

### Нерабочим временем будем считать интервал с 0:00 по 15:00, так как там наименьшая активность по сравнению с интервалом с 16:00 по 24:00, что видно ниже:

    dataset$timestamp_seconds <- dataset$timestamp / 1000
    dataset$timestamp <- as.POSIXct(dataset$timestamp_seconds, origin = "1970-01-01", tz = "Europe/Moscow")
    dataset$hour <-  format(dataset$timestamp, format = "%H")
    dataset$minutes <- format(dataset$timestamp, format = "%M")

    ahours <- dataset %>% group_by(hour) %>% summarise(N = n())
    select(arrange(ahours,desc(N)),N,hour)

    ## # A tibble: 24 × 2
    ##           N hour 
    ##       <int> <chr>
    ##  1 12237573 01   
    ##  2 12226575 02   
    ##  3 12226457 21   
    ##  4 12224721 00   
    ##  5 12220671 23   
    ##  6 12219218 22   
    ##  7 12217746 19   
    ##  8 12213523 20   
    ##  9   537639 11   
    ## 10   495908 12   
    ## # ℹ 14 more rows
…
